^C:\USERS\HORIA\SOURCE\REPOS\OPENGL PROJECT 1\OPENGL PROJECT 1\MAIN.CPP
C:\USERS\HORIA\SOURCE\REPOS\OPENGL PROJECT 1\OPENGL PROJECT 1\RELEASE\VC141.PDB
C:\USERS\HORIA\SOURCE\REPOS\OPENGL PROJECT 1\OPENGL PROJECT 1\RELEASE\MAIN.OBJ
